INDEX VERSION 1.134+D:\Study\HK2_Nam4\Kientruc\WatchStore\watchstore\.metadata\.plugins\org.eclipse.jdt.core
3242001935.index
98484677.index
3632706473.index
2412605813.index
757034460.index
1865797976.index
1909142326.index
1489312578.index
1955545518.index
3350534862.index
3788738978.index
503230505.index
2561196279.index
869195220.index
3358206041.index
3406065410.index
1019205866.index
4168593990.index
2896185845.index
2439743915.index
856833298.index
4294228957.index
4135099972.index
1819770692.index
2305242201.index
1456962843.index
552963841.index
2692961471.index
2784447873.index
1533547786.index
3695434372.index
3946611079.index
3107903509.index
3716482725.index
1685023396.index
1739829028.index
1066599747.index
2534321508.index
1977168652.index
3402382033.index
916627778.index
1196638262.index
58729307.index
3586883077.index
3944993253.index
340103288.index
1234570969.index
2694296769.index
2264721881.index
2042523123.index
489117011.index
568409416.index
702225067.index
1844876820.index
4216053383.index
3928097466.index
3326122263.index
1891147032.index
2356894797.index
648835558.index
2599380593.index
3128198733.index
3205354990.index
3963072896.index
1611267967.index
971762013.index
3371854544.index
2707167524.index
3686813368.index
3150434460.index
1387886428.index
3370055691.index
1919144207.index
3128577935.index
1327391194.index
2105083661.index
2677532500.index
3321976613.index
3784109684.index
1835757423.index
235081993.index
101321088.index
1123031145.index
3379111126.index
2261381850.index
1982384459.index
3597111270.index
